LYTHUYET/WEEK1/Bai1/simulation/qsim/Bai1.msim.vcd
$comment
	File created using the following command:
		vcd file Bai1.msim.vcd -direction
$end
$date
	Wed Mar 15 13:54:56 2023
$end
$version
	ModelSim Version 10.1d
$end
$timescale
	1ps
$end
$scope module Bai1_vlg_vec_tst $end
$var reg 1 ! C $end
$var reg 1 " CLK $end
$var reg 1 # D $end
$var reg 1 $ EN $end
$var reg 1 % I0 $end
$var reg 1 & I1 $end
$var reg 1 ' I2 $end
$var wire 1 ( O $end
$var wire 1 ) Q0 $end
$var wire 1 * Q1 $end
$var wire 1 + Q2 $end
$var wire 1 , sampler $end
$scope module i1 $end
$var wire 1 - gnd $end
$var wire 1 . vcc $end
$var wire 1 / unknown $end
$var tri1 1 0 devclrn $end
$var tri1 1 1 devpor $end
$var tri1 1 2 devoe $end
$var wire 1 3 CLK~combout $end
$var wire 1 4 CLK~clkctrl_outclk $end
$var wire 1 5 I2~combout $end
$var wire 1 6 EN~combout $end
$var wire 1 7 inst|inst98~combout $end
$var wire 1 8 JK2~1_combout $end
$var wire 1 9 C~combout $end
$var wire 1 : D~combout $end
$var wire 1 ; inst|inst5~combout $end
$var wire 1 < I0~combout $end
$var wire 1 = JK0~1_combout $end
$var wire 1 > JK0~6_combout $end
$var wire 1 ? JK0~3_combout $end
$var wire 1 @ JK0~0_combout $end
$var wire 1 A JK0~_emulated_regout $end
$var wire 1 B JK0~2_combout $end
$var wire 1 C I1~combout $end
$var wire 1 D inst|inst3~combout $end
$var wire 1 E JK1~1_combout $end
$var wire 1 F inst6~1_combout $end
$var wire 1 G JK1~3_combout $end
$var wire 1 H JK1~0_combout $end
$var wire 1 I JK1~_emulated_regout $end
$var wire 1 J JK1~2_combout $end
$var wire 1 K JK2~6_combout $end
$var wire 1 L JK2~3_combout $end
$var wire 1 M JK2~0_combout $end
$var wire 1 N JK2~_emulated_regout $end
$var wire 1 O JK2~2_combout $end
$var wire 1 P inst6~0_combout $end
$upscope $end
$upscope $end
$enddefinitions $end
#0
$dumpvars
0!
0"
0#
0$
0%
0&
0'
0(
0)
0*
0+
x,
0-
1.
x/
10
11
12
03
04
05
06
07
08
09
0:
0;
0<
0=
0>
0?
1@
0A
0B
0C
0D
0E
0F
0G
1H
0I
0J
0K
0L
1M
0N
0O
0P
$end
#10000
1"
13
14
0,
#20000
1$
0"
16
03
04
1,
1D
1;
17
0H
0@
0M
#30000
1"
13
14
0,
#40000
0"
03
04
1,
#50000
1"
13
14
0,
#60000
0"
03
04
1,
#70000
1"
13
14
0,
#80000
1#
0"
1:
03
04
1,
1>
#90000
1"
13
14
0,
#100000
0"
03
04
1,
#110000
1"
13
14
0,
#120000
0"
03
04
1,
#130000
1"
13
14
0,
#140000
0"
03
04
1,
#150000
1!
0#
1"
19
0:
13
14
0,
1L
1G
1?
0>
0?
#160000
0"
03
04
1,
#170000
1"
13
14
0,
1N
1I
1O
1J
1P
0L
1F
1>
0G
1+
1*
1?
1(
#180000
0"
03
04
1,
#190000
1"
13
14
0,
0N
0I
1A
0O
0J
1B
0P
1L
0F
0>
1K
0?
0+
0*
1)
1G
0L
0(
#200000
0"
03
04
1,
#210000
1"
13
14
0,
1I
0A
1J
0B
0K
0G
1*
0)
1L
#220000
0"
03
04
1,
#230000
1"
13
14
0,
1N
0I
1O
0J
1P
0L
1F
1>
1G
1+
0*
0G
1?
1(
#240000
0"
03
04
1,
#250000
1"
13
14
0,
0N
1A
0O
1B
0P
1L
0F
0>
1K
0?
0+
1)
1G
0L
0(
#260000
0"
03
04
1,
#270000
1"
13
14
0,
1I
0A
1J
0B
0K
0G
1*
0)
1L
#280000
0"
03
04
1,
#290000
1"
13
14
0,
1N
0I
1O
0J
1P
0L
1F
1>
1G
1+
0*
0G
1?
1(
#300000
0"
03
04
1,
#310000
1"
13
14
0,
0N
1A
0O
1B
0P
1L
0F
0>
1K
0?
0+
1)
1G
0L
0(
#320000
0"
03
04
1,
#330000
1"
13
14
0,
1I
0A
1J
0B
0K
0G
1*
0)
1L
#340000
0"
03
04
1,
#350000
1"
13
14
0,
1N
0I
1O
0J
1P
0L
1F
1>
1G
1+
0*
0G
1?
1(
#360000
0"
03
04
1,
#370000
1"
13
14
0,
0N
1A
0O
1B
0P
1L
0F
0>
1K
0?
0+
1)
1G
0L
0(
#380000
0"
03
04
1,
#390000
1"
13
14
0,
1I
0A
1J
0B
0K
0G
1*
0)
1L
#400000
0"
03
04
1,
#410000
1"
13
14
0,
1N
0I
1O
0J
1P
0L
1F
1>
1G
1+
0*
0G
1?
1(
#420000
0"
03
04
1,
#430000
1"
13
14
0,
0N
1A
0O
1B
0P
1L
0F
0>
1K
0?
0+
1)
1G
0L
0(
#440000
0"
03
04
1,
#450000
1"
13
14
0,
1I
0A
1J
0B
0K
0G
1*
0)
1L
#460000
0"
03
04
1,
#470000
1"
13
14
0,
1N
0I
1O
0J
1P
0L
1F
1>
1G
1+
0*
0G
1?
1(
#480000
1#
0"
1:
03
04
1,
0P
0F
0>
1G
0?
0(
#490000
1"
13
14
0,
0N
1I
0O
1J
1L
1>
1K
0G
0+
1*
1?
0L
#500000
0"
03
04
1,
#510000
1"
13
14
0,
0I
1A
0J
1B
0K
1G
1P
1F
0?
0*
1)
1L
0G
1(
#520000
0"
03
04
1,
#530000
1"
13
14
0,
1N
0A
1O
0B
0P
0L
0F
0>
1?
1+
0)
1G
0?
0(
#540000
0"
03
04
1,
#550000
1"
13
14
0,
0N
1I
0O
1J
1L
1>
1K
0G
0+
1*
1?
0L
#560000
0"
03
04
1,
#570000
1"
13
14
0,
0I
1A
0J
1B
0K
1G
1P
1F
0?
0*
1)
1L
0G
1(
#580000
0"
03
04
1,
#590000
1"
13
14
0,
1N
0A
1O
0B
0P
0L
0F
0>
1?
1+
0)
1G
0?
0(
#600000
0"
03
04
1,
#610000
1"
13
14
0,
0N
1I
0O
1J
1L
1>
1K
0G
0+
1*
1?
0L
#620000
0"
03
04
1,
#630000
1"
13
14
0,
0I
1A
0J
1B
0K
1G
1P
1F
0?
0*
1)
1L
0G
1(
#640000
0"
03
04
1,
#650000
1"
13
14
0,
1N
0A
1O
0B
0P
0L
0F
0>
1?
1+
0)
1G
0?
0(
#660000
0"
03
04
1,
#670000
1"
13
14
0,
0N
1I
0O
1J
1L
1>
1K
0G
0+
1*
1?
0L
#680000
0"
03
04
1,
#690000
1"
13
14
0,
0I
1A
0J
1B
0K
1G
1P
1F
0?
0*
1)
1L
0G
1(
#700000
0"
03
04
1,
#710000
1"
13
14
0,
1N
0A
1O
0B
0P
0L
0F
0>
1?
1+
0)
1G
0?
0(
#720000
0"
03
04
1,
#730000
1"
13
14
0,
0N
1I
0O
1J
1L
1>
1K
0G
0+
1*
1?
0L
#740000
0"
03
04
1,
#750000
1"
13
14
0,
0I
1A
0J
1B
0K
1G
1P
1F
0?
0*
1)
1L
0G
1(
#760000
0"
03
04
1,
#770000
1"
13
14
0,
1N
0A
1O
0B
0P
0L
0F
0>
1?
1+
0)
1G
0?
0(
#780000
0"
03
04
1,
#790000
1"
13
14
0,
0N
1I
0O
1J
1L
1>
1K
0G
0+
1*
1?
0L
#800000
0"
03
04
1,
#810000
1"
13
14
0,
0I
1A
0J
1B
0K
1G
1P
1F
0?
0*
1)
1L
0G
1(
#820000
0"
03
04
1,
#830000
1"
13
14
0,
1N
0A
1O
0B
0P
0L
0F
0>
1?
1+
0)
1G
0?
0(
#840000
0"
03
04
1,
#850000
1"
13
14
0,
0N
1I
0O
1J
1L
1>
1K
0G
0+
1*
1?
0L
#860000
0"
03
04
1,
#870000
1"
13
14
0,
0I
1A
0J
1B
0K
1G
1P
1F
0?
0*
1)
1L
0G
1(
#880000
0"
03
04
1,
#890000
1"
13
14
0,
1N
0A
1O
0B
0P
0L
0F
0>
1?
1+
0)
1G
0?
0(
#900000
0"
03
04
1,
#910000
1"
13
14
0,
0N
1I
0O
1J
1L
1>
1K
0G
0+
1*
1?
0L
#920000
0"
03
04
1,
#930000
1"
13
14
0,
0I
1A
0J
1B
0K
1G
1P
1F
0?
0*
1)
1L
0G
1(
#940000
0"
03
04
1,
#950000
1"
13
14
0,
1N
0A
1O
0B
0P
0L
0F
0>
1?
1+
0)
1G
0?
0(
#960000
0"
03
04
1,
#970000
1"
13
14
0,
0N
1I
0O
1J
1L
1>
1K
0G
0+
1*
1?
0L
#980000
0"
03
04
1,
#990000
1"
13
14
0,
0I
1A
0J
1B
0K
1G
1P
1F
0?
0*
1)
1L
0G
1(
